mock({"photoset":{"id":"72157623918551670", "primary":"3666755769", "owner":"71768238@N00", "ownername":"Zhao Shouren", "photo":[{"id":"4884497296", "secret":"9a679bf112", "server":"4117", "farm":5, "title":"windows \u2013 2010", "isprimary":"0", "ownername":"Zhao Shouren", "originalsecret":"dd48bc4e2e", "originalformat":"jpg", "o_width":"3456", "o_height":"2304"}, {"id":"4883624486", "secret":"a40e6fa36b", "server":"4093", "farm":5, "title":"windows \u2013 2010", "isprimary":"0", "ownername":"Zhao Shouren", "originalsecret":"f3f651b960", "originalformat":"jpg", "o_width":"3456", "o_height":"2304"}, {"id":"4884496850", "secret":"9ee3ef8bee", "server":"4095", "farm":5, "title":"skylights \u2013 2010", "isprimary":"0", "ownername":"Zhao Shouren", "originalsecret":"67de163462", "originalformat":"jpg", "o_width":"3456", "o_height":"2304"}, {"id":"4883017511", "secret":"d9823125af", "server":"4123", "farm":5, "title":"skylights \u2013 2010", "isprimary":"0", "ownername":"Zhao Shouren", "originalsecret":"9703913f45", "originalformat":"jpg", "o_width":"3456", "o_height":"2304"}, {"id":"4883892989", "secret":"315f5cbb2d", "server":"4080", "farm":5, "title":"skylights \u2013 2010", "isprimary":"0", "ownername":"Zhao Shouren", "originalsecret":"f17ac3d54b", "originalformat":"jpg", "o_width":"3456", "o_height":"2304"}, {"id":"4883011145", "secret":"a089c76408", "server":"4121", "farm":5, "title":"skylights \u2013 2010", "isprimary":"0", "ownername":"Zhao Shouren", "originalsecret":"def992996c", "originalformat":"jpg", "o_width":"3456", "o_height":"2304"}, {"id":"4597270069", "secret":"22f512b354", "server":"4062", "farm":5, "title":"", "isprimary":"0", "ownername":"Zhao Shouren", "originalsecret":"947a7e0398", "originalformat":"jpg", "o_width":"3456", "o_height":"2304"}, {"id":"4597883950", "secret":"eac1cbe43f", "server":"4020", "farm":5, "title":"over the Southwest: desert mountains \u2013 2010", "isprimary":"0", "ownername":"Zhao Shouren", "originalsecret":"a3c70f4bf2", "originalformat":"jpg", "o_width":"3456", "o_height":"2304"}, {"id":"4883891983", "secret":"55c4a6794c", "server":"4137", "farm":5, "title":"windows \u2013 2010", "isprimary":"0", "ownername":"Zhao Shouren", "originalsecret":"609594b591", "originalformat":"jpg", "o_width":"3456", "o_height":"2304"}, {"id":"4597027764", "secret":"6a8eb18f9c", "server":"4070", "farm":5, "title":"windows \u2013 2009", "isprimary":"0", "ownername":"Zhao Shouren", "originalsecret":"d19f6063c6", "originalformat":"jpg", "o_width":"3456", "o_height":"2304"}], "page":"1", "per_page":"10", "perpage":"10", "pages":8, "total":"75"}, "stat":"ok"})
